module github.com/gitpod-io/gitpod/ws-proxy

go 1.18

require (
	github.com/bombsimon/logrusr/v2 v2.0.1
	github.com/gitpod-io/gitpod/common-go v0.0.0-00010101000000-000000000000
	github.com/gitpod-io/gitpod/registry-facade/api v0.0.0-00010101000000-000000000000
	github.com/gitpod-io/gitpod/supervisor/api v0.0.0-00010101000000-000000000000
	github.com/gitpod-io/gitpod/ws-manager/api v0.0.0-00010101000000-000000000000
	github.com/go-ozzo/ozzo-validation v3.6.0+incompatible
	github.com/google/go-cmp v0.5.7
	github.com/gorilla/handlers v1.5.1
	github.com/gorilla/mux v1.8.0
	github.com/klauspost/cpuid/v2 v2.0.9
	github.com/sirupsen/logrus v1.8.1
	github.com/spf13/cobra v1.2.1
	golang.org/x/crypto v0.0.0-20220518034528-6f7dac969898
	golang.org/x/net v0.0.0-20211209124913-491a49abca63
	golang.org/x/xerrors v0.0.0-20200804184101-5ec99f83aff1
	google.golang.org/grpc v1.45.0
	k8s.io/api v0.23.5
	k8s.io/apimachinery v0.23.5
	k8s.io/client-go v0.23.5
	sigs.k8s.io/controller-runtime v0.11.2
)

require (
	github.com/beorn7/perks v1.0.1 // indirect
	github.com/cespare/xxhash/v2 v2.1.2 // indirect
	github.com/davecgh/go-spew v1.1.1 // indirect
	github.com/evanphx/json-patch v4.12.0+incompatible // indirect
	github.com/felixge/httpsnoop v1.0.1 // indirect
	github.com/fsnotify/fsnotify v1.5.1 // indirect
	github.com/gitpod-io/gitpod/content-service/api v0.0.0-00010101000000-000000000000 // indirect
	github.com/go-logr/logr v1.2.3 // indirect
	github.com/gogo/protobuf v1.3.2 // indirect
	github.com/golang/groupcache v0.0.0-20210331224755-41bb18bfe9da // indirect
	github.com/golang/protobuf v1.5.2 // indirect
	github.com/google/gofuzz v1.1.0 // indirect
	github.com/google/uuid v1.1.2 // indirect
	github.com/googleapis/gnostic v0.5.5 // indirect
	github.com/grpc-ecosystem/grpc-gateway/v2 v2.5.0 // indirect
	github.com/hashicorp/golang-lru v0.5.1 // indirect
	github.com/imdario/mergo v0.3.12 // indirect
	github.com/inconshreveable/mousetrap v1.0.0 // indirect
	github.com/json-iterator/go v1.1.12 // indirect
	github.com/matttproud/golang_protobuf_extensions v1.0.2-0.20181231171920-c182affec369 // indirect
	github.com/modern-go/concurrent v0.0.0-20180306012644-bacd9c7ef1dd // indirect
	github.com/modern-go/reflect2 v1.0.2 // indirect
	github.com/opencontainers/go-digest v1.0.0 // indirect
	github.com/opencontainers/image-spec v1.0.2 // indirect
	github.com/opentracing/opentracing-go v1.2.0 // indirect
	github.com/pkg/errors v0.9.1 // indirect
	github.com/prometheus/client_golang v1.12.1 // indirect
	github.com/prometheus/client_model v0.2.0 // indirect
	github.com/prometheus/common v0.32.1 // indirect
	github.com/prometheus/procfs v0.7.3 // indirect
	github.com/segmentio/backo-go v0.0.0-20200129164019-23eae7c10bd3 // indirect
	github.com/spf13/pflag v1.0.5 // indirect
	github.com/uber/jaeger-client-go v2.29.1+incompatible // indirect
	github.com/uber/jaeger-lib v2.4.1+incompatible // indirect
	github.com/xtgo/uuid v0.0.0-20140804021211-a0b114877d4c // indirect
	go.uber.org/atomic v1.8.0 // indirect
	golang.org/x/oauth2 v0.0.0-20210819190943-2bc19b11175f // indirect
	golang.org/x/sys v0.0.0-20220517195934-5e4e11fc645e // indirect
	golang.org/x/term v0.0.0-20210615171337-6886f2dfbf5b // indirect
	golang.org/x/text v0.3.7 // indirect
	golang.org/x/time v0.0.0-20210723032227-1f47c861a9ac // indirect
	gomodules.xyz/jsonpatch/v2 v2.2.0 // indirect
	google.golang.org/appengine v1.6.7 // indirect
	google.golang.org/genproto v0.0.0-20210831024726-fe130286e0e2 // indirect
	google.golang.org/protobuf v1.28.0 // indirect
	gopkg.in/inf.v0 v0.9.1 // indirect
	gopkg.in/segmentio/analytics-go.v3 v3.1.0 // indirect
	gopkg.in/yaml.v2 v2.4.0 // indirect
	gopkg.in/yaml.v3 v3.0.0-20210107192922-496545a6307b // indirect
	k8s.io/apiextensions-apiserver v0.23.5 // indirect
	k8s.io/component-base v0.23.5 // indirect
	k8s.io/klog/v2 v2.30.0 // indirect
	k8s.io/kube-openapi v0.0.0-20211115234752-e816edb12b65 // indirect
	k8s.io/utils v0.0.0-20211116205334-6203023598ed // indirect
	sigs.k8s.io/json v0.0.0-20211020170558-c049b76a60c6 // indirect
	sigs.k8s.io/structured-merge-diff/v4 v4.2.1 // indirect
	sigs.k8s.io/yaml v1.3.0 // indirect
)

replace github.com/gitpod-io/gitpod/common-go => ../common-go // leeway

replace github.com/gitpod-io/gitpod/content-service => ../content-service // leeway

replace github.com/gitpod-io/gitpod/content-service/api => ../content-service-api/go // leeway

replace github.com/gitpod-io/gitpod/registry-facade/api => ../registry-facade-api/go // leeway

replace github.com/gitpod-io/gitpod/supervisor/api => ../supervisor-api/go // leeway

replace github.com/gitpod-io/gitpod/ws-manager/api => ../ws-manager-api/go // leeway

replace k8s.io/api => k8s.io/api v0.23.5 // leeway indirect from components/common-go:lib

replace k8s.io/apiextensions-apiserver => k8s.io/apiextensions-apiserver v0.23.5 // leeway indirect from components/common-go:lib

replace k8s.io/apimachinery => k8s.io/apimachinery v0.23.5 // leeway indirect from components/common-go:lib

replace k8s.io/apiserver => k8s.io/apiserver v0.23.5 // leeway indirect from components/common-go:lib

replace k8s.io/cli-runtime => k8s.io/cli-runtime v0.23.5 // leeway indirect from components/common-go:lib

replace k8s.io/client-go => k8s.io/client-go v0.23.5 // leeway indirect from components/common-go:lib

replace k8s.io/cloud-provider => k8s.io/cloud-provider v0.23.5 // leeway indirect from components/common-go:lib

replace k8s.io/cluster-bootstrap => k8s.io/cluster-bootstrap v0.23.5 // leeway indirect from components/common-go:lib

replace k8s.io/code-generator => k8s.io/code-generator v0.23.5 // leeway indirect from components/common-go:lib

replace k8s.io/component-base => k8s.io/component-base v0.23.5 // leeway indirect from components/common-go:lib

replace k8s.io/cri-api => k8s.io/cri-api v0.23.5 // leeway indirect from components/common-go:lib

replace k8s.io/csi-translation-lib => k8s.io/csi-translation-lib v0.23.5 // leeway indirect from components/common-go:lib

replace k8s.io/kube-aggregator => k8s.io/kube-aggregator v0.23.5 // leeway indirect from components/common-go:lib

replace k8s.io/kube-controller-manager => k8s.io/kube-controller-manager v0.23.5 // leeway indirect from components/common-go:lib

replace k8s.io/kube-proxy => k8s.io/kube-proxy v0.23.5 // leeway indirect from components/common-go:lib

replace k8s.io/kube-scheduler => k8s.io/kube-scheduler v0.23.5 // leeway indirect from components/common-go:lib

replace k8s.io/kubelet => k8s.io/kubelet v0.23.5 // leeway indirect from components/common-go:lib

replace k8s.io/legacy-cloud-providers => k8s.io/legacy-cloud-providers v0.23.5 // leeway indirect from components/common-go:lib

replace k8s.io/metrics => k8s.io/metrics v0.23.5 // leeway indirect from components/common-go:lib

replace k8s.io/sample-apiserver => k8s.io/sample-apiserver v0.23.5 // leeway indirect from components/common-go:lib

replace k8s.io/component-helpers => k8s.io/component-helpers v0.23.5 // leeway indirect from components/common-go:lib

replace k8s.io/controller-manager => k8s.io/controller-manager v0.23.5 // leeway indirect from components/common-go:lib

replace k8s.io/kubectl => k8s.io/kubectl v0.23.5 // leeway indirect from components/common-go:lib

replace k8s.io/mount-utils => k8s.io/mount-utils v0.23.5 // leeway indirect from components/common-go:lib

replace k8s.io/pod-security-admission => k8s.io/pod-security-admission v0.23.5 // leeway indirect from components/common-go:lib
