module github.com/gitpod-io/gitpod/ws-daemon/nsinsider

go 1.18

replace github.com/seccomp/libseccomp-golang => github.com/kinvolk/libseccomp-golang v0.9.2-0.20201113182948-883917843313 // leeway indirect from components/workspacekit:lib

require (
	github.com/gitpod-io/gitpod/common-go v0.0.0-00010101000000-000000000000
	github.com/google/nftables v0.0.0-20220329160011-5a9391c12fe3
	github.com/urfave/cli/v2 v2.3.0
	github.com/vishvananda/netlink v1.1.1-0.20210330154013-f5de75959ad5
	golang.org/x/sys v0.0.0-20220114195835-da31bd327af9
	golang.org/x/xerrors v0.0.0-20200804184101-5ec99f83aff1
)

require (
	github.com/BurntSushi/toml v0.4.1 // indirect
	github.com/cpuguy83/go-md2man/v2 v2.0.0 // indirect
	github.com/google/go-cmp v0.5.7 // indirect
	github.com/josharian/native v0.0.0-20200817173448-b6b71def0850 // indirect
	github.com/mdlayher/netlink v1.4.2 // indirect
	github.com/mdlayher/socket v0.0.0-20211102153432-57e3fa563ecb // indirect
	github.com/russross/blackfriday/v2 v2.0.1 // indirect
	github.com/shurcooL/sanitized_anchor_name v1.0.0 // indirect
	github.com/sirupsen/logrus v1.8.1 // indirect
	github.com/vishvananda/netns v0.0.0-20200728191858-db3c7e526aae // indirect
	golang.org/x/mod v0.5.1 // indirect
	golang.org/x/net v0.0.0-20211209124913-491a49abca63 // indirect
	golang.org/x/tools v0.1.8 // indirect
	honnef.co/go/tools v0.2.2 // indirect
)

replace github.com/gitpod-io/gitpod/common-go => ../../common-go // leeway

replace github.com/gitpod-io/gitpod/content-service/api => ../../content-service-api/go // leeway

replace github.com/gitpod-io/gitpod/ws-daemon/api => ../../ws-daemon-api/go // leeway

replace k8s.io/api => k8s.io/api v0.23.5 // leeway indirect from components/common-go:lib

replace k8s.io/apiextensions-apiserver => k8s.io/apiextensions-apiserver v0.23.5 // leeway indirect from components/common-go:lib

replace k8s.io/apimachinery => k8s.io/apimachinery v0.23.5 // leeway indirect from components/common-go:lib

replace k8s.io/apiserver => k8s.io/apiserver v0.23.5 // leeway indirect from components/common-go:lib

replace k8s.io/cli-runtime => k8s.io/cli-runtime v0.23.5 // leeway indirect from components/common-go:lib

replace k8s.io/client-go => k8s.io/client-go v0.23.5 // leeway indirect from components/common-go:lib

replace k8s.io/cloud-provider => k8s.io/cloud-provider v0.23.5 // leeway indirect from components/common-go:lib

replace k8s.io/cluster-bootstrap => k8s.io/cluster-bootstrap v0.23.5 // leeway indirect from components/common-go:lib

replace k8s.io/code-generator => k8s.io/code-generator v0.23.5 // leeway indirect from components/common-go:lib

replace k8s.io/component-base => k8s.io/component-base v0.23.5 // leeway indirect from components/common-go:lib

replace k8s.io/cri-api => k8s.io/cri-api v0.23.5 // leeway indirect from components/common-go:lib

replace k8s.io/csi-translation-lib => k8s.io/csi-translation-lib v0.23.5 // leeway indirect from components/common-go:lib

replace k8s.io/kube-aggregator => k8s.io/kube-aggregator v0.23.5 // leeway indirect from components/common-go:lib

replace k8s.io/kube-controller-manager => k8s.io/kube-controller-manager v0.23.5 // leeway indirect from components/common-go:lib

replace k8s.io/kube-proxy => k8s.io/kube-proxy v0.23.5 // leeway indirect from components/common-go:lib

replace k8s.io/kube-scheduler => k8s.io/kube-scheduler v0.23.5 // leeway indirect from components/common-go:lib

replace k8s.io/kubelet => k8s.io/kubelet v0.23.5 // leeway indirect from components/common-go:lib

replace k8s.io/legacy-cloud-providers => k8s.io/legacy-cloud-providers v0.23.5 // leeway indirect from components/common-go:lib

replace k8s.io/metrics => k8s.io/metrics v0.23.5 // leeway indirect from components/common-go:lib

replace k8s.io/sample-apiserver => k8s.io/sample-apiserver v0.23.5 // leeway indirect from components/common-go:lib

replace k8s.io/component-helpers => k8s.io/component-helpers v0.23.5 // leeway indirect from components/common-go:lib

replace k8s.io/controller-manager => k8s.io/controller-manager v0.23.5 // leeway indirect from components/common-go:lib

replace k8s.io/kubectl => k8s.io/kubectl v0.23.5 // leeway indirect from components/common-go:lib

replace k8s.io/mount-utils => k8s.io/mount-utils v0.23.5 // leeway indirect from components/common-go:lib

replace k8s.io/pod-security-admission => k8s.io/pod-security-admission v0.23.5 // leeway indirect from components/common-go:lib
